{
  "hash": "6d02730ca6b2ada308a551ba2da6ff20",
  "result": {
    "markdown": "---\ntitle: \"robotoolbox: an R client for Kobotoolbox\"\nformat:\n  html:\n    df-print: kable\nauthor:\n  - name: Ahmadou Dicko\n    url: https://fosstodon.org/@dickoa\ndate: \"2023-01-28\"\ncategories: [R, Kobotoolbox]\nimage: \"feature.gif\"\nimage-alt: \"A women filling a form on a mobile device.\"\nexecute:\n  message: false\n  warning: false\n  echo: true\n  comment: \"#>\"\n---\n\n\n[Kobotoolbox](https://www.kobotoolbox.org/) is one of the most widely used to for mobile data collection. It is used by many humanitarian organizations to collect data online, offline and in challenging settings.\n\nOnce collected, you can export the data in Excel format through the platform to run your analysis. However, as data is being collected, manually exporting files for analysis is not the best way to build a robust pipeline for automatic and reproducible data analysis.\n\nOne approach to fix this problem is to build set of tools to streamline analysis of `Kobotoolbox` data through its new [API](https://support.kobotoolbox.org/api.html). The use of the API fix one problem which is the automatic access to the data but to also have a reproducible workflow we need a flexible programming languages for data analysis like `R`.\n\n`robotoolbox` is a new `R` package created to tackle these issues. It allows analyst to quickly get their data from `Kobotoolbox` to `R`.\n\n# Install robotoolbox\n\n`robotoolbox` is still in development and not yet on CRAN. In order to install it, you will need the [`remotes`](https://github.com/r-lib/remotes) package.\n\n\n\n::: {.cell}\n\n```{.r .cell-code}\n## install.packages(\"remotes\")\nremotes::install_github(\"dickoa/robotoolbox\")\n```\n:::\n\n\n`robotoolbox` is built around [`KoBoToolbox API v2`](https://support.kobotoolbox.org/api.html) and its main goal is to ease the process by which you can access your collected data.\n\nIn order to setup `robotoolbox`, you will need to set your API token and specify the `KoboToolbox` server URL you use. The easiest way to setup `robotoolbox` is to store the token and url your `.Renviron`.\n\nWe are using the following environment variables `KOBOTOOLBOX_URL` and `KOBOTOOLBOX_TOKEN` to respectively store the server url and token. You can use the `usethis` R package and the `usethis::edit_r_environ()` function to add these environment variables to your `.Renviron` file.\n\n\n\n::: {.cell}\n\n```{.r .cell-code}\nKOBOTOOLBOX_URL=\"https://kobo.unhcr.org/\"\nKOBOTOOLBOX_TOKEN=xxxxxxxxxxxxxxxxxxxxxxxxxx\n```\n:::\n\n\nIn an interactive session, you can use directly the `kobo_setup` function.\n\n\n::: {.cell}\n\n```{.r .cell-code}\nlibrary(\"robotoolbox\")\nkobo_setup(url = \"https://kobo.unhcr.org\",\n           token = \"xxxxxxxxxxxxxxxxxxxxxxxxxx\")\n```\n:::\n\n\nYou can get your `token` manually through the `KoBotoolbox` web interface in your account settings. There is also the `kobo_token` function to do the same thing automagically from `R`.\n\n\n::: {.cell}\n\n```{.r .cell-code}\ntoken <- kobo_token(username = \"cool_user_name\",\n                    password = \"gRe@TP@$$WoRd\",\n                    overwrite = TRUE)\n```\n:::\n\n\nThis token can then be used in the setup.\n\n\n::: {.cell}\n\n```{.r .cell-code}\nkobo_setup(url = \"https://kobo.unhcr.org\",\n           token = token)\n```\n:::\n\n\nand it is possible to check the settings with the `kobo_settings` function.\n\n\n::: {.cell}\n\n```{.r .cell-code}\nkobo_settings()\n## <robotoolbox settings>\n##    KoBoToolbox URL: https://kobo.unhcr.org/\n##    KoBoToolbox API Token: xxxxxxxxxxxxxxxxxxxxxxxxxx\n```\n:::\n\n\n# Kobotoolbox projects\n\n## List your projects\n\nAll your `Kobotoolbox` projects also named `assets` can be checked and listed through the web interface.\n\n\n\n::: {.cell}\n::: {.cell-output-display}\n![](./img/list_assets.png){width=955}\n:::\n:::\n\n\nUsing `robotoolbox`, you can do something similar from `R` with the `kobo_asset_list` function. The result of a call to `kobo_asset_list` is a `tibble` and can be manipulated as such.\n\n\n\n::: {.cell}\n\n```{.r .cell-code}\nlibrary(\"robotoolbox\")\nlibrary(\"dplyr\")\nal <- kobo_asset_list()\n\nal |>\n  slice_head(n = 6)\n```\n\n::: {.cell-output-display}\n<div class=\"kable-table\">\n\n|uid                    |name                                                                      |asset_type |owner_username |date_created        |date_modified       | submissions|\n|:----------------------|:-------------------------------------------------------------------------|:----------|:--------------|:-------------------|:-------------------|-----------:|\n|a37LegD9joqVEDjaGaDrmP |WCA Programme management capacity building and COMPASS improvement survey |survey     |dickoa         |2023-01-23 20:02:50 |2023-01-27 12:34:52 |           1|\n|a9bwEQcaWqWaA5hzkjRAWx |UNHCR FORMULAIRE COLLECTE DES INCIDENTS DE PROTECTION - INTERSOS          |survey     |imrca          |2021-03-05 08:04:06 |2023-01-04 08:57:57 |       10876|\n|aA9QwKdEXqfGiQCkPNzKBR |RMS CAPI POUR TEST GISSE                                                  |survey     |dickoa         |2022-12-30 16:23:57 |2022-12-30 17:22:02 |           1|\n|aEZsFfwvADtcAGzuVhd6UL |date_time test                                                            |survey     |dickoa         |2022-12-18 13:31:21 |2022-12-18 13:31:42 |           1|\n|aGHVFT8pFCikCsimq8NtRS |contact data manh test                                                    |survey     |dickoa         |2022-12-18 12:54:02 |2022-12-18 12:54:32 |           1|\n|acoSWjKHdu8nUpFSuAdt2h |2021_UNHCR_CIV_Menage Rapatrie                                            |survey     |unhcr_ico      |2021-11-10 10:33:14 |2022-10-26 09:34:26 |       12984|\n\n</div>\n:::\n:::\n\n\n\n## KoboToolbox asset\n\nYou can also manipulate directly each `asset` (project) using `kobo_asset`. An asset is uniquely identified by a unique identifier: the `uid`.\n\n\n::: {.cell}\n\n```{.r .cell-code}\nuid <- \"aEwTYNcU76UvLgiY89rPWm\"\nasset <- kobo_asset(uid)\nasset\n```\n\n::: {.cell-output .cell-output-stdout}\n```\n<robotoolbox asset>  aEwTYNcU76UvLgiY89rPWm \n  Asset name: Pan-African Capacity Building in R\n  Asset type: survey\n  Asset owner: rrc_rrrp19\n  Created: 2022-01-06 14:33:35\n  Last modified: 2022-01-28 12:31:28\n  Submissions: 95\n```\n:::\n:::\n\n\nSince `al`, the list of assets, is a `data.frame`, we can subset it and select the `uid` of interest based on the other available metadata.\n\nAs an example, you can get the uid associated to the project with the largest number of submissions.\n\n\n::: {.cell}\n\n```{.r .cell-code}\nal |>\n  slice_max(submissions) |>\n  pull(uid)\n```\n\n::: {.cell-output .cell-output-stdout}\n```\n[1] \"a7XzRuPFn9j5WkT2mR6wbg\"\n```\n:::\n:::\n\n\nAnd it's then possible to get the associated `asset` object.\n\n\n\n::: {.cell}\n\n```{.r .cell-code}\nal |>\n  slice_max(submissions) |>\n  pull(uid) |>\n  kobo_asset()\n```\n\n::: {.cell-output .cell-output-stdout}\n```\n<robotoolbox asset>  a7XzRuPFn9j5WkT2mR6wbg \n  Asset name: form for stress test\n  Asset type: survey\n  Asset owner: tmneche\n  Created: 2021-04-14 10:19:19\n  Last modified: 2021-05-21 11:31:33\n  Submissions: 118261\n```\n:::\n:::\n\n\n# Kobotoolbox data\n\nThe main function on the `robotoolbox` package is `kobo_data` (or `kobo_submissions` its alias) and as the name suggests, it loads your data from the server.\n\nWe can illustrate its usage with data from a project named `Multiple languages`.\n\nThe first step, is to get `uid` of the project (or `asset`).\n\n\n::: {.cell}\n\n```{.r .cell-code}\nuid_ml <- al |>\n  filter(name == \"Multiple languages\") |>\n  pull(uid)\nuid_ml\n```\n\n::: {.cell-output .cell-output-stdout}\n```\n[1] \"aYuTZn9vegi3Z49MXwKjep\"\n```\n:::\n:::\n\n\nWe can the use `uid_ml` that uniquely identify the `Multiple languages` asset to read its data\n\n\n\n::: {.cell}\n\n```{.r .cell-code}\ndata_ml <- kobo_data(uid_ml)\n\ndata_ml |>\n  select(start:uuid)\n```\n\n::: {.cell-output-display}\n<div class=\"kable-table\">\n\n|start               |end                 |today      |full_name   |pet_yesno |      _id|uuid                             |\n|:-------------------|:-------------------|:----------|:-----------|:---------|--------:|:--------------------------------|\n|2022-01-07 10:39:47 |2022-01-07 10:40:02 |2022-01-07 |Fatim       |1         | 17735003|5388c680d19148828ea45913af820f30 |\n|2022-01-07 10:39:37 |2022-01-07 10:39:47 |2022-01-07 |Jean-Pierre |0         | 17735002|5388c680d19148828ea45913af820f30 |\n|2022-01-07 10:38:29 |2022-01-07 10:39:37 |2022-01-07 |إبراهيم     |1         | 17735000|5388c680d19148828ea45913af820f30 |\n|2022-01-07 10:38:20 |2022-01-07 10:38:29 |2022-01-07 |Michelle    |1         | 17734995|5388c680d19148828ea45913af820f30 |\n|2022-01-07 10:37:39 |2022-01-07 10:38:20 |2022-01-07 |Ahmad       |0         | 17734994|5388c680d19148828ea45913af820f30 |\n\n</div>\n:::\n:::\n\n\n# Kobotoolbox form\n\nYou can also check the form used using the `kobo_form` function\n\n\n::: {.cell}\n\n```{.r .cell-code}\nuid_ml |>\n  kobo_form()\n```\n\n::: {.cell-output-display}\n<div class=\"kable-table\">\n\n|name      |list_name |type       |label                              |lang          |kuid      |choices                                                                                                                                                                                                                                                                    |\n|:---------|:---------|:----------|:----------------------------------|:-------------|:---------|:--------------------------------------------------------------------------------------------------------------------------------------------------------------------------------------------------------------------------------------------------------------------------|\n|start     |NA        |start      |NA                                 |English (en)  |Cypi2O0NQ |                                                                                                                                                                                                                                                                           |\n|end       |NA        |end        |NA                                 |English (en)  |F2Erecceg |                                                                                                                                                                                                                                                                           |\n|today     |NA        |today      |NA                                 |English (en)  |6WnNQUnlF |                                                                                                                                                                                                                                                                           |\n|full_name |NA        |text       |What is your name?                 |English (en)  |pkEk0bzX7 |                                                                                                                                                                                                                                                                           |\n|full_name |NA        |text       |Quel est votre nom ?               |Francais (fr) |pkEk0bzX7 |                                                                                                                                                                                                                                                                           |\n|full_name |NA        |text       |ما اسمك ؟                          |Arabic (ar)   |pkEk0bzX7 |                                                                                                                                                                                                                                                                           |\n|pet_yesno |yesno     |select_one |Do you have any pet?               |English (en)  |a1xXud0rG |1            , 1            , 1            , 0            , 0            , 0            , Yes          , Oui          , نعم          , No           , Non          , لا           , English (en) , Francais (fr), Arabic (ar)  , English (en) , Francais (fr), Arabic (ar) |\n|pet_yesno |yesno     |select_one |Avez-vous un animal de compagnie ? |Francais (fr) |a1xXud0rG |1            , 1            , 1            , 0            , 0            , 0            , Yes          , Oui          , نعم          , No           , Non          , لا           , English (en) , Francais (fr), Arabic (ar)  , English (en) , Francais (fr), Arabic (ar) |\n|pet_yesno |yesno     |select_one |هل تمتلك حيوانا أليفا ؟            |Arabic (ar)   |a1xXud0rG |1            , 1            , 1            , 0            , 0            , 0            , Yes          , Oui          , نعم          , No           , Non          , لا           , English (en) , Francais (fr), Arabic (ar)  , English (en) , Francais (fr), Arabic (ar) |\n\n</div>\n:::\n:::\n\n\nWhich is a representation in `robotoolbox` of the following [`xlsform`](https://xlsform.org/en/)\n\n\n### Survey questions\n\n| type             | name      | label::English (en)  | label::Francais (fr)               | label::Arabic (ar)  |\n|:-----------------|:----------|:---------------------|:-----------------------------------|:--------------------|\n| start            | start     |                      |                                    |                     |\n| end              | end       |                      |                                    |                     |\n| today            | today     |                      |                                    |                     |\n| text             | full_name | What is your name?   | Quel est votre nom ?               | ما اسمك ؟           |\n| select_one yesno | pet_yesno | Do you have any pet? | Avez-vous un animal de compagnie ? | هل تمتلك حيوانا أليفا ؟ |\n\n\n### Choices\n\n| list_name | name | label::English (en) | label::Francais (fr) | label::Arabic (ar) |\n|:----------|-----:|:--------------------|:---------------------|:-------------------|\n| yesno     |    1 | Yes                 | Oui                  | نعم                |\n| yesno     |    0 | No                  | Non                  | لا                 |\n",
    "supporting": [],
    "filters": [
      "rmarkdown/pagebreak.lua"
    ],
    "includes": {},
    "engineDependencies": {},
    "preserve": {},
    "postProcess": true
  }
}